챕터 7 2호선 지하철 혼잡도 분석 | 공공데이터 분석 101
…
먼저 시간별로 전체 지하철의 혼잡도를 살펴보자.

busyMetro %>% 
   group_by(시간) %>% 
   summarise(평균혼잡도 = mean(혼잡도, na.rm = TRUE))

## # A tibble: 39 × 2
##    시간  평균혼잡도
##    <fct>      <dbl>
##  1 5:30        14.8
##  2 6:00        14.7
##  3 6:30        14.3
##  4 7:00        18.6
##  5 7:30        24.5
##  6 8:00        32.1
##  7 8:30        30.0
##  8 9:00        29.3
##  9 9:30        27.7
## 10 10:00       25.6
## # … with 29 more rows
…
